AE-12 Zach Perry
…
Fix air_date for later use.

theoffice <- theoffice %>%
  mutate(air_date = ymd(as.character(air_date)))

theoffice

# A tibble: 55,130 × 12
   index season episode episode_name director   writer           character text 
   <int>  <int>   <int> <chr>        <chr>      <chr>            <chr>     <chr>
 1     1      1       1 Pilot        Ken Kwapis Ricky Gervais;S… Michael   All …
 2     2      1       1 Pilot        Ken Kwapis Ricky Gervais;S… Jim       Oh, …
 3     3      1       1 Pilot        Ken Kwapis Ricky Gervais;S… Michael   So y…
 4     4      1       1 Pilot        Ken Kwapis Ricky Gervais;S… Jim       Actu…
 5     5      1       1 Pilot        Ken Kwapis Ricky Gervais;S… Michael   All …
 6     6      1       1 Pilot        Ken Kwapis Ricky Gervais;S… Michael   Yes,…
 7     7      1       1 Pilot        Ken Kwapis Ricky Gervais;S… Michael   I've…
 8     8      1       1 Pilot        Ken Kwapis Ricky Gervais;S… Pam       Well…
 9     9      1       1 Pilot        Ken Kwapis Ricky Gervais;S… Michael   If y…
10    10      1       1 Pilot        Ken Kwapis Ricky Gervais;S… Pam       What?
# ℹ 55,120 more rows
# ℹ 4 more variables: text_w_direction <chr>, imdb_rating <dbl>,
#   total_votes <int>, air_date <date>
…
Vday_episodes

# A tibble: 6 × 2
  episode_name                  vday
  <chr>                        <dbl>
1 Blood Drive                      1
2 Couples Discount                 1
3 PDA                              1
4 Special Project                  1
5 The Manager and the Salesman     1
6 Valentine's Day                  1

Christmas_episodes

# A tibble: 34 × 2
   episode_name                     Christmas
   <chr>                                <dbl>
 1 A Benihana Christmas (Parts 1&2)         1
 2 Branch Closing                           1
 3 Business Trip                            1
 4 Cafe Disco                               1
 5 Casino Night                             1
 6 Christening                              1
 7 Christmas Party                          1
 8 Christmas Wishes                         1
 9 Classy Christmas (Parts 1&2)             1
10 Cocktails                                1
# ℹ 24 more rows
…
joined_theoffice <-
theoffice |>
  select(season, episode, episode_name, total_votes, imdb_rating, air_date) |>
  left_join(halloween_episodes, by = "episode_name") |>
  left_join(Vday_episodes, by = "episode_name") |> 
  left_join(Christmas_episodes, by = "episode_name") |>
  replace_na(list(halloween =0, Christmas = 0, vday = 0))

joined_theoffice2 <- joined_theoffice |>
  mutate(michael = if_else(season < 8,1,0))

joined_theoffice2

# A tibble: 55,130 × 10
   season episode episode_name total_votes imdb_rating air_date   halloween
    <int>   <int> <chr>              <int>       <dbl> <date>         <dbl>
 1      1       1 Pilot               3706         7.6 2005-03-24         0
 2      1       1 Pilot               3706         7.6 2005-03-24         0
 3      1       1 Pilot               3706         7.6 2005-03-24         0
 4      1       1 Pilot               3706         7.6 2005-03-24         0
 5      1       1 Pilot               3706         7.6 2005-03-24         0
 6      1       1 Pilot               3706         7.6 2005-03-24         0
 7      1       1 Pilot               3706         7.6 2005-03-24         0
 8      1       1 Pilot               3706         7.6 2005-03-24         0
 9      1       1 Pilot               3706         7.6 2005-03-24         0
10      1       1 Pilot               3706         7.6 2005-03-24         0
# ℹ 55,120 more rows
# ℹ 3 more variables: vday <dbl>, Christmas <dbl>, michael <dbl>

Exercise 4:

Split the data into training (75%) and testing (25%)

set.seed(1122)
office_split <- initial_split(joined_theoffice2)
office_train <- training(office_split)
office_test <- testing(office_split)

office_train

# A tibble: 41,347 × 10
   season episode episode_name      total_votes imdb_rating air_date   halloween
    <int>   <int> <chr>                   <int>       <dbl> <date>         <dbl>
 1      1       4 The Alliance             2886         8.1 2005-04-12         0
 2      3       8 The Merger               2376         8.7 2006-11-16         0
 3      6      16 The Manager and …        1670         8.1 2010-02-11         0
 4      3      17 Business School          2622         8.8 2007-02-15         0
 5      1       1 Pilot                    3706         7.6 2005-03-24         0
 6      2      18 Take Your Daught…        2415         8.3 2006-03-16         0
 7      7      17 Threat Level Mid…        3525         9.3 2011-02-17         0
 8      8      23 Turf War                 1393         7.7 2012-05-03         0
 9      3      10 A Benihana Chris…        2541         8.7 2006-12-14         0
10      4       9 Local Ad                 2388         8.8 2007-10-25         0
# ℹ 41,337 more rows
# ℹ 3 more variables: vday <dbl>, Christmas <dbl>, michael <dbl>
…
